convert all metadata.tsv files in package to long form — metadata_long_form • curatedMetagenomicDataCuration
…
    Author

    Sean Davis <seandavi@gmail.com>

    Examples

ret = metadata_long_form()
dim(ret)

#> [1] 463979      7
ret

#> # A tibble: 463,979 x 7
#>    study  sampleID  subjectID variable  numeric_value logical_value string_value
#>    <chr>  <chr>     <chr>     <chr>             <dbl> <lgl>         <chr>       
#>  1 Asnic… MV_FEI1_… MV_FEI1   age                   1 NA            NA          
#>  2 Asnic… MV_FEI1_… MV_FEI1   infant_a…            90 NA            NA          
#>  3 Asnic… MV_FEI1_… MV_FEI1   PMID           28144631 NA            NA          
#>  4 Asnic… MV_FEI1_… MV_FEI1   number_r…      27553455 NA            NA          
#>  5 Asnic… MV_FEI1_… MV_FEI1   number_b…    2748531713 NA            NA          
#>  6 Asnic… MV_FEI1_… MV_FEI1   minimum_…            80 NA            NA          
#>  7 Asnic… MV_FEI1_… MV_FEI1   median_r…           100 NA            NA          
#>  8 Asnic… MV_FEI2_… MV_FEI2   age                   1 NA            NA          
#>  9 Asnic… MV_FEI2_… MV_FEI2   infant_a…            90 NA            NA          
#> 10 Asnic… MV_FEI2_… MV_FEI2   PMID           28144631 NA            NA          
#> # … with 463,969 more rows
…
